EESchema Schematic File Version 4
EELAYER 30 0
EELAYER END
$Descr A4 11693 8268
encoding utf-8
Sheet 1 1
Title "TL7705 Reset signals"
Date ""
Rev ""
Comp ""
Comment1 ""
Comment2 "(c) 2021"
Comment3 "tim@zipt.co"
Comment4 "Author: Tim Whelan"
$EndDescr
$Comp
L Power_Supervisor:TL7705A U1
U 1 1 600BD853
P 3350 1950
F 0 "U1" H 3000 1600 50  0000 C CNN
F 1 "TL7705A" H 3600 1600 50  0000 C CNN
F 2 "" H 3350 1950 50  0001 C CNN
F 3 "http://www.ti.com.cn/cn/lit/ds/symlink/tl7705a.pdf" H 3350 1950 50  0001 C CNN
	1    3350 1950
	1    0    0    -1  
$EndComp
$Comp
L power:PWR_FLAG #FLG02
U 1 1 600BDFD6
P 10500 1000
F 0 "#FLG02" H 10500 1075 50  0001 C CNN
F 1 "PWR_FLAG" H 10500 1173 50  0000 C CNN
F 2 "" H 10500 1000 50  0001 C CNN
F 3 "~" H 10500 1000 50  0001 C CNN
	1    10500 1000
	1    0    0    -1  
$EndComp
$Comp
L power:PWR_FLAG #FLG01
U 1 1 600BE6EC
P 10050 1000
F 0 "#FLG01" H 10050 1075 50  0001 C CNN
F 1 "PWR_FLAG" H 10050 1173 50  0000 C CNN
F 2 "" H 10050 1000 50  0001 C CNN
F 3 "~" H 10050 1000 50  0001 C CNN
	1    10050 1000
	1    0    0    -1  
$EndComp
$Comp
L power:VCC #PWR03
U 1 1 600BEB11
P 10050 1000
F 0 "#PWR03" H 10050 850 50  0001 C CNN
F 1 "VCC" H 10065 1173 50  0000 C CNN
F 2 "" H 10050 1000 50  0001 C CNN
F 3 "" H 10050 1000 50  0001 C CNN
	1    10050 1000
	-1   0    0    1   
$EndComp
$Comp
L power:GND #PWR04
U 1 1 600BF1F9
P 10500 1000
F 0 "#PWR04" H 10500 750 50  0001 C CNN
F 1 "GND" H 10505 827 50  0000 C CNN
F 2 "" H 10500 1000 50  0001 C CNN
F 3 "" H 10500 1000 50  0001 C CNN
	1    10500 1000
	1    0    0    -1  
$EndComp
$Comp
L power:VCC #PWR01
U 1 1 600C0478
P 3350 1350
F 0 "#PWR01" H 3350 1200 50  0001 C CNN
F 1 "VCC" H 3365 1523 50  0000 C CNN
F 2 "" H 3350 1350 50  0001 C CNN
F 3 "" H 3350 1350 50  0001 C CNN
	1    3350 1350
	1    0    0    -1  
$EndComp
Wire Wire Line
	2850 1750 2850 1350
Wire Wire Line
	2850 1350 3350 1350
Wire Wire Line
	3350 1550 3350 1350
Connection ~ 3350 1350
$Comp
L power:GND #PWR02
U 1 1 600C0A8A
P 3350 2750
F 0 "#PWR02" H 3350 2500 50  0001 C CNN
F 1 "GND" H 3355 2577 50  0000 C CNN
F 2 "" H 3350 2750 50  0001 C CNN
F 3 "" H 3350 2750 50  0001 C CNN
	1    3350 2750
	1    0    0    -1  
$EndComp
Wire Wire Line
	3350 2350 3350 2750
$Comp
L Switch:SW_Push SW1
U 1 1 600C1290
P 2250 2150
F 0 "SW1" V 2400 2400 50  0000 R CNN
F 1 "SW_Push" V 2100 2500 50  0001 R CNN
F 2 "" H 2250 2350 50  0001 C CNN
F 3 "~" H 2250 2350 50  0001 C CNN
	1    2250 2150
	0    -1   -1   0   
$EndComp
Wire Wire Line
	2850 1950 2250 1950
$Comp
L Device:R R1
U 1 1 600C1C85
P 2250 1600
F 0 "R1" H 2320 1646 50  0000 L CNN
F 1 "1k" H 2320 1555 50  0000 L CNN
F 2 "" V 2180 1600 50  0001 C CNN
F 3 "~" H 2250 1600 50  0001 C CNN
	1    2250 1600
	1    0    0    -1  
$EndComp
Wire Wire Line
	2250 1750 2250 1950
Connection ~ 2250 1950
Wire Wire Line
	2250 1450 2250 1350
Wire Wire Line
	2250 1350 2850 1350
Connection ~ 2850 1350
Wire Wire Line
	2250 2350 2250 2750
Wire Wire Line
	2250 2750 2650 2750
Connection ~ 3350 2750
$Comp
L Device:R R2
U 1 1 600C4F82
P 4400 1500
F 0 "R2" H 4470 1546 50  0000 L CNN
F 1 "10k" H 4470 1455 50  0000 L CNN
F 2 "" V 4330 1500 50  0001 C CNN
F 3 "~" H 4400 1500 50  0001 C CNN
	1    4400 1500
	1    0    0    -1  
$EndComp
$Comp
L Device:CP C2
U 1 1 600C6CBA
P 4000 2500
F 0 "C2" H 4118 2546 50  0000 L CNN
F 1 "0.1uF" H 4118 2455 50  0000 L CNN
F 2 "" H 4038 2350 50  0001 C CNN
F 3 "~" H 4000 2500 50  0001 C CNN
	1    4000 2500
	1    0    0    -1  
$EndComp
Wire Wire Line
	3850 2150 4000 2150
Wire Wire Line
	4000 2150 4000 2350
Wire Wire Line
	4000 2650 4000 2750
Wire Wire Line
	4000 2750 3350 2750
$Comp
L Device:CP C1
U 1 1 600C7606
P 2650 2500
F 0 "C1" H 2768 2546 50  0000 L CNN
F 1 "22uF" H 2768 2455 50  0000 L CNN
F 2 "" H 2688 2350 50  0001 C CNN
F 3 "~" H 2650 2500 50  0001 C CNN
	1    2650 2500
	1    0    0    -1  
$EndComp
Wire Wire Line
	2850 2150 2650 2150
Wire Wire Line
	2650 2150 2650 2350
Wire Wire Line
	2650 2650 2650 2750
Connection ~ 2650 2750
Wire Wire Line
	2650 2750 3350 2750
Wire Wire Line
	4400 1350 3350 1350
Text GLabel 4750 1750 2    50   Input ~ 0
~RESET
Text GLabel 4750 1950 2    50   Input ~ 0
RESET
$Comp
L Device:R R3
U 1 1 600C9FB9
P 4400 2350
F 0 "R3" H 4470 2396 50  0000 L CNN
F 1 "10k" H 4470 2305 50  0000 L CNN
F 2 "" V 4330 2350 50  0001 C CNN
F 3 "~" H 4400 2350 50  0001 C CNN
	1    4400 2350
	1    0    0    -1  
$EndComp
Wire Wire Line
	4400 2500 4400 2750
Wire Wire Line
	4400 2750 4000 2750
Connection ~ 4000 2750
Wire Wire Line
	3850 1950 4400 1950
Wire Wire Line
	4400 1650 4400 1750
Wire Wire Line
	4400 1750 4750 1750
Wire Wire Line
	3850 1750 4400 1750
Connection ~ 4400 1750
Wire Wire Line
	4400 1950 4400 2200
Connection ~ 4400 1950
Wire Wire Line
	4400 1950 4750 1950
$EndSCHEMATC
